(footprint "help_diff93" (version 20221018) (generator pcbnew)
  (layer "F.Cu")
  (descr "Capacitor SMD 01005 (0402 Metric), square (rectangular) end terminal, IPC_7351 nominal, (Body size source: http://www.vishay.com/docs/20056/crcw01005e3.pdf), generated with kicad-footprint-generator")
  (tags "capacitor")
  (attr smd)
  (fp_text reference "REF**" (at 0 -1) (layer "F.SilkS")
      (effects (font (size 1 1) (thickness 0.15)))
    (tstamp acde39cb-39ba-4b28-933c-f9c824b375cd)
  )
  (fp_text value "help_diff93" (at 0 1) (layer "F.Fab")
      (effects (font (size 1 1) (thickness 0.15)))
    (tstamp 2ca2ba98-f2f1-4a23-931b-f426d6134530)
  )
  (fp_text user "${REFERENCE}" (at 0 -0.62) (layer "F.Fab")
      (effects (font (size 0.25 0.25) (thickness 0.04)))
    (tstamp af3e2fa0-18a4-47ac-991f-91b9d354c894)
  )
  (fp_line (start -0.2 -0.1) (end 0.2 -0.1)
    (stroke (width 0.1) (type solid)) (layer "F.Fab") (tstamp a64710de-09d7-49b2-b457-58bd399e84ef))
  (fp_line (start -0.2 0.1) (end -0.2 -0.1)
    (stroke (width 0.1) (type solid)) (layer "F.Fab") (tstamp 4a7b14b7-7224-4cdb-9a69-2c9f28d69b47))
  (fp_line (start 0.2 -0.1) (end 0.2 0.1)
    (stroke (width 0.1) (type solid)) (layer "F.Fab") (tstamp 738e0440-9a66-445d-a7d0-60cc32d27093))
  (fp_line (start 0.2 0.1) (end -0.2 0.1)
    (stroke (width 0.1) (type solid)) (layer "F.Fab") (tstamp 1971ccf2-0895-44a4-8a7e-bffcd2b55cd5))
  (pad "1" smd circle (at -0.20447 0) (size 0.23622 0.23622) (layers "F.Cu") (tstamp c3aa617d-8229-4c9f-aaff-2f509f03686d))
  (pad "2" smd circle (at 0.20447 0) (size 0.23622 0.23622) (layers "F.Cu") (tstamp 76a4658a-a74e-4e77-b946-5eb3a95c99ef))
  (model "${KICAD6_3DMODEL_DIR}/Capacitor_SMD.3dshapes/C_01005_0402Metric.wrl"
    (offset (xyz 0 0 0))
    (scale (xyz 1 1 1))
    (rotate (xyz 0 0 0))
  )
)
