(module LED_0603 (layer F.Cu) (tedit 6108E9AD)
  (attr smd)
  (fp_text reference REF** (at 0 -2.2) (layer F.SilkS)
    (effects (font (size 1 1) (thickness 0.15)))
  )
  (fp_text value Ferrite_0603 (at 0 1.9) (layer F.Fab)
    (effects (font (size 1 1) (thickness 0.15)))
  )
  (fp_line (start -1.2 0.3) (end -1.2 -0.3) (layer F.SilkS) (width 0.12))
  (fp_line (start 1.11 0.71) (end 1.25 0.71) (layer F.CrtYd) (width 0.05))
  (fp_line (start 1.11 -0.71) (end 1.25 -0.71) (layer F.CrtYd) (width 0.05))
  (fp_line (start -1.11 -0.71) (end -1.25 -0.71) (layer F.CrtYd) (width 0.05))
  (fp_line (start -1.11 0.71) (end -1.25 0.71) (layer F.CrtYd) (width 0.05))
  (fp_line (start -1.11 -0.71) (end 1.11 -0.71) (layer F.CrtYd) (width 0.05))
  (fp_line (start 1.25 -0.71) (end 1.25 0.71) (layer F.CrtYd) (width 0.05))
  (fp_line (start 1.11 0.71) (end -1.11 0.71) (layer F.CrtYd) (width 0.05))
  (fp_line (start -1.25 0.71) (end -1.25 -0.71) (layer F.CrtYd) (width 0.05))
  (fp_line (start -0.3 0.3) (end 0.3 0.3) (layer F.SilkS) (width 0.12))
  (fp_line (start -0.3 -0.3) (end 0.3 -0.3) (layer F.SilkS) (width 0.12))
  (fp_line (start -0.8 -0.4) (end -0.8 0.4) (layer F.Fab) (width 0.12))
  (fp_line (start -0.8 0.4) (end 0.8 0.4) (layer F.Fab) (width 0.12))
  (fp_line (start 0.8 0.4) (end 0.8 -0.4) (layer F.Fab) (width 0.12))
  (fp_line (start 0.8 -0.4) (end -0.8 -0.4) (layer F.Fab) (width 0.12))
  (pad 1 smd rect (at -0.7 0) (size 0.6 0.8) (layers F.Cu F.Paste F.Mask))
  (pad 2 smd rect (at 0.7 0) (size 0.6 0.8) (layers F.Cu F.Paste F.Mask))
)
