(footprint "Mini-Circuits_EP4RKU+_DG1677-2" (version 20211014) (generator pcbnew)
  (layer "F.Cu")
  (tedit 62148030)
  (attr smd)
  (fp_text reference "REF**" (at 0 -3.75) (layer "F.SilkS")
    (effects (font (size 0.78774 0.78774) (thickness 0.015)))
    (tstamp 0187e06b-1aa8-4cca-88cc-cc265dc5c1f8)
  )
  (fp_text value "Mini-Circuits_EP4RKU+_DG1677-2" (at 0 3.75) (layer "F.Fab")
    (effects (font (size 0.787433 0.787433) (thickness 0.015)))
    (tstamp 4c72b264-43e7-4509-b891-8bb2ca416fa2)
  )
  (fp_line (start -3 3) (end 3 3) (layer "F.SilkS") (width 0.12) (tstamp 08e2d62f-f99a-4268-8b33-617dfcc63e75))
  (fp_line (start 3 -3) (end -3 -3) (layer "F.SilkS") (width 0.12) (tstamp 563c12e4-8f8c-446c-a11f-94f5aa93b994))
  (fp_line (start 3 3) (end 3 -3) (layer "F.SilkS") (width 0.12) (tstamp c5a1761e-3391-4e74-90c9-947fd66e1fc6))
  (fp_line (start -3 -3) (end -3 3) (layer "F.SilkS") (width 0.12) (tstamp c9a0dd18-d945-4bfe-8921-ced29a4068d2))
  (fp_circle (center -2.75 -2.25) (end -2.65 -2.25) (layer "F.SilkS") (width 0.2) (fill none) (tstamp 9b396834-9f2e-4234-8e77-e2f453053d8c))
  (fp_line (start -2.5 -2.5) (end -2.5 2.5) (layer "F.CrtYd") (width 0.05) (tstamp 35354519-a28c-40c4-befd-0943e98dea53))
  (fp_line (start 2.5 2.5) (end 2.5 -2.5) (layer "F.CrtYd") (width 0.05) (tstamp 68e09be7-3bbc-4443-a838-209ce20b2bef))
  (fp_line (start 2.5 -2.5) (end -2.5 -2.5) (layer "F.CrtYd") (width 0.05) (tstamp 712d6a7d-2b62-464f-b745-fd2a6b0187f6))
  (fp_line (start -2.5 2.5) (end 2.5 2.5) (layer "F.CrtYd") (width 0.05) (tstamp 9dab0cb7-2557-4419-963b-5ae736517f62))
  (pad "1" smd oval (at -2.5 -1.75) (size 0.89 0.3) (layers "F.Cu" "F.Paste" "F.Mask") (tstamp 814763c2-92e5-4a2c-941c-9bbd073f6e87))
  (pad "2" smd oval (at -2.5 -1.25) (size 0.89 0.3) (layers "F.Cu" "F.Paste" "F.Mask") (tstamp 4846e011-093f-45d5-a7b5-b07bed654003))
  (pad "3" smd oval (at -2.5 -0.75) (size 0.89 0.3) (layers "F.Cu" "F.Paste" "F.Mask") (tstamp a1823eb2-fb0d-4ed8-8b96-04184ac3a9d5))
  (pad "4" smd oval (at -2.5 -0.25) (size 0.89 0.3) (layers "F.Cu" "F.Paste" "F.Mask") (tstamp ac264c30-3e9a-4be2-b97a-9949b68bd497))
  (pad "5" smd oval (at -2.5 0.25) (size 0.89 0.3) (layers "F.Cu" "F.Paste" "F.Mask") (tstamp e3fc1e69-a11c-4c84-8952-fefb9372474e))
  (pad "6" smd oval (at -2.5 0.75) (size 0.89 0.3) (layers "F.Cu" "F.Paste" "F.Mask") (tstamp 970e0f64-111f-41e3-9f5a-fb0d0f6fa101))
  (pad "7" smd oval (at -2.5 1.25) (size 0.89 0.3) (layers "F.Cu" "F.Paste" "F.Mask") (tstamp 6e435cd4-da2b-4602-a0aa-5dd988834dff))
  (pad "8" smd oval (at -2.5 1.75) (size 0.89 0.3) (layers "F.Cu" "F.Paste" "F.Mask") (tstamp 4ba06b66-7669-4c70-b585-f5d4c9c33527))
  (pad "9" smd oval (at -1.75 2.5 90) (size 0.89 0.3) (layers "F.Cu" "F.Paste" "F.Mask") (tstamp 84d296ba-3d39-4264-ad19-947f90c54396))
  (pad "10" smd oval (at -1.25 2.5 90) (size 0.89 0.3) (layers "F.Cu" "F.Paste" "F.Mask") (tstamp 3b686d17-1000-4762-ba31-589d599a3edf))
  (pad "11" smd oval (at -0.75 2.5 90) (size 0.89 0.3) (layers "F.Cu" "F.Paste" "F.Mask") (tstamp 1f9ae101-c652-4998-a503-17aedf3d5746))
  (pad "12" smd oval (at -0.25 2.5 90) (size 0.89 0.3) (layers "F.Cu" "F.Paste" "F.Mask") (tstamp 1171ce37-6ad7-4662-bb68-5592c945ebf3))
  (pad "13" smd oval (at 0.25 2.5 90) (size 0.89 0.3) (layers "F.Cu" "F.Paste" "F.Mask") (tstamp f988d6ea-11c5-4837-b1d1-5c292ded50c6))
  (pad "14" smd oval (at 0.75 2.5 90) (size 0.89 0.3) (layers "F.Cu" "F.Paste" "F.Mask") (tstamp e6d68f56-4a40-4849-b8d1-13d5ca292900))
  (pad "15" smd oval (at 1.25 2.5 90) (size 0.89 0.3) (layers "F.Cu" "F.Paste" "F.Mask") (tstamp 6cb93665-0bcd-4104-8633-fffd1811eee0))
  (pad "16" smd oval (at 1.75 2.5 90) (size 0.89 0.3) (layers "F.Cu" "F.Paste" "F.Mask") (tstamp aa1c6f47-cbd4-4cbd-8265-e5ac08b7ffc8))
  (pad "17" smd oval (at 2.48932 1.747569) (size 0.89 0.3) (layers "F.Cu" "F.Paste" "F.Mask") (tstamp 3d552623-2969-4b15-8623-368144f225e9))
  (pad "18" smd oval (at 2.5 1.25) (size 0.89 0.3) (layers "F.Cu" "F.Paste" "F.Mask") (tstamp 62f15a9a-9893-486e-9ad0-ea43f88fc9e7))
  (pad "19" smd oval (at 2.48932 0.75) (size 0.89 0.3) (layers "F.Cu" "F.Paste" "F.Mask") (tstamp 57f248a7-365e-4c42-b80d-5a7d1f9dfaf3))
  (pad "20" smd oval (at 2.48932 0.25) (size 0.89 0.3) (layers "F.Cu" "F.Paste" "F.Mask") (tstamp d1c19c11-0a13-4237-b6b4-fb2ef1db7c6d))
  (pad "21" smd oval (at 2.5 -0.25) (size 0.89 0.3) (layers "F.Cu" "F.Paste" "F.Mask") (tstamp 92a23ed4-a5ea-4cea-bc33-0a83191a0d32))
  (pad "22" smd oval (at 2.5 -0.75) (size 0.89 0.3) (layers "F.Cu" "F.Paste" "F.Mask") (tstamp 2028d85e-9e27-4758-8c0b-559fad072813))
  (pad "23" smd oval (at 2.5 -1.25) (size 0.89 0.3) (layers "F.Cu" "F.Paste" "F.Mask") (tstamp 8ae05d37-86b4-45ea-800f-f1f9fb167857))
  (pad "24" smd oval (at 2.5 -1.75) (size 0.89 0.3) (layers "F.Cu" "F.Paste" "F.Mask") (tstamp a6c7f556-10bb-4a6d-b61b-a732ec6fa5cc))
  (pad "25" smd oval (at 1.75 -2.5 90) (size 0.89 0.3) (layers "F.Cu" "F.Paste" "F.Mask") (tstamp 35431843-170f-401f-88d7-da91172bed86))
  (pad "26" smd oval (at 1.25 -2.5 90) (size 0.89 0.3) (layers "F.Cu" "F.Paste" "F.Mask") (tstamp 9c2a29da-c83f-4ec8-bbcf-9d775812af04))
  (pad "27" smd oval (at 0.75 -2.5 90) (size 0.89 0.3) (layers "F.Cu" "F.Paste" "F.Mask") (tstamp 3382bf79-b686-4aeb-9419-c8ab591662bb))
  (pad "28" smd oval (at 0.25 -2.5 90) (size 0.89 0.3) (layers "F.Cu" "F.Paste" "F.Mask") (tstamp 86143bb0-7899-4df8-b1df-baa3c0ac7889))
  (pad "29" smd oval (at -0.25 -2.5 90) (size 0.89 0.3) (layers "F.Cu" "F.Paste" "F.Mask") (tstamp 2ec9be40-1d5a-4e2d-8a4d-4be2d3c079d5))
  (pad "30" smd oval (at -0.75 -2.5 90) (size 0.89 0.3) (layers "F.Cu" "F.Paste" "F.Mask") (tstamp e0692317-3143-4681-97c6-8fbe46592f31))
  (pad "31" smd oval (at -1.25 -2.5 90) (size 0.89 0.3) (layers "F.Cu" "F.Paste" "F.Mask") (tstamp 16aa2316-1a67-45e5-b6c4-e59dd85814f4))
  (pad "32" smd oval (at -1.75 -2.5 90) (size 0.89 0.3) (layers "F.Cu" "F.Paste" "F.Mask") (tstamp 1d6c2d6c-bee0-401d-9749-98f17833afdd))
  (pad "33" smd custom (at 0 0) (size 2.79 2.79) (layers "F.Cu" "F.Paste" "F.Mask")
    (options (clearance outline) (anchor rect))
    (primitives
    ) (tstamp 752fa345-d8be-4e99-aad1-e88671f99643))
)
