(footprint "Mini-Circuits_SC4PS-33+_98-PL-368" (version 20211014) (generator pcbnew)
  (layer "F.Cu")
  (tedit 62135423)
  (attr smd)
  (fp_text reference "REF**" (at 0 -7.62) (layer "F.SilkS")
    (effects (font (size 0.78774 0.78774) (thickness 0.015)))
    (tstamp 0187e06b-1aa8-4cca-88cc-cc265dc5c1f8)
  )
  (fp_text value "Mini-Circuits_SC4PS-33+_98-PL-368" (at 0 8.2) (layer "F.Fab")
    (effects (font (size 0.787433 0.787433) (thickness 0.015)))
    (tstamp 4c72b264-43e7-4509-b891-8bb2ca416fa2)
  )
  (fp_line (start 6.86 6.86) (end 6.86 -6.86) (layer "F.SilkS") (width 0.12) (tstamp 1444709b-532e-434a-ad63-09472db3076d))
  (fp_line (start 6.86 -6.86) (end -6.86 -6.86) (layer "F.SilkS") (width 0.12) (tstamp 34474d36-1c75-4137-8131-c0a752ed2a1f))
  (fp_line (start -6.86 -6.86) (end -6.86 6.86) (layer "F.SilkS") (width 0.12) (tstamp 6a5a285d-363f-40f6-b71d-58df6faa4e45))
  (fp_line (start -6.86 6.86) (end 6.86 6.86) (layer "F.SilkS") (width 0.12) (tstamp fbb29eb5-6513-42a4-820f-96a237008ee2))
  (fp_circle (center -3.43 7.2) (end -3.33 7.2) (layer "F.SilkS") (width 0.2) (fill none) (tstamp c7bd67c7-a2f7-42fe-b548-03943bfd5b19))
  (fp_line (start 6.35 6.35) (end 6.35 -6.35) (layer "F.CrtYd") (width 0.05) (tstamp 30001e54-b931-4c99-a85a-cc67ed27d667))
  (fp_line (start 6.35 -6.35) (end -6.35 -6.35) (layer "F.CrtYd") (width 0.05) (tstamp 78f6ee86-7e2a-4691-97cc-dd192b1a5941))
  (fp_line (start -6.35 6.35) (end -6.35 -6.35) (layer "F.CrtYd") (width 0.05) (tstamp 89b7fedc-e2b3-4671-b3f7-54f3b815487b))
  (fp_line (start -6.35 6.35) (end 6.35 6.35) (layer "F.CrtYd") (width 0.05) (tstamp dc708af3-2563-42a7-ba02-0f1054ed467f))
  (pad "1" smd rect (at -3.43 6.1) (size 1.52 1.52) (layers "F.Cu" "F.Paste" "F.Mask") (tstamp 4846e011-093f-45d5-a7b5-b07bed654003))
  (pad "2" smd rect (at -0.89 6.1) (size 1.52 1.52) (layers "F.Cu" "F.Paste" "F.Mask") (tstamp 7696eee8-2e4b-40b7-a317-93296a435dae))
  (pad "3" smd rect (at 1.65 6.1) (size 1.52 1.52) (layers "F.Cu" "F.Paste" "F.Mask") (tstamp 5a1fee0b-8c0b-434f-8346-94370d763fce))
  (pad "4" smd rect (at 4.19 6.1) (size 1.52 1.52) (layers "F.Cu" "F.Paste" "F.Mask") (tstamp 7fab652b-8277-417b-8d12-d85ec5932df3))
  (pad "5" smd rect (at 6.1 3.43) (size 1.52 1.52) (layers "F.Cu" "F.Paste" "F.Mask") (tstamp fa5a4d13-b191-4180-ae74-11374bbc7fbc))
  (pad "6" smd rect (at 6.1 0.89) (size 1.52 1.52) (layers "F.Cu" "F.Paste" "F.Mask") (tstamp d8359e62-cc4f-4deb-9900-21e7f0e2a154))
  (pad "7" smd rect (at 6.1 -1.65) (size 1.52 1.52) (layers "F.Cu" "F.Paste" "F.Mask") (tstamp 9116e307-d468-4a54-a967-4c07f30352f2))
  (pad "8" smd rect (at 6.1 -4.19) (size 1.52 1.52) (layers "F.Cu" "F.Paste" "F.Mask") (tstamp a2ab0cbc-f695-4d62-8559-58e4327d6709))
  (pad "9" smd rect (at 3.3 -6.1) (size 1.52 1.52) (layers "F.Cu" "F.Paste" "F.Mask") (tstamp 58c2e80a-178c-4183-9d58-aabe9b78079e))
  (pad "10" smd rect (at 0.76 -6.1) (size 1.52 1.52) (layers "F.Cu" "F.Paste" "F.Mask") (tstamp 4c897d61-d100-4f26-b532-3e4b44a3e5d8))
  (pad "11" smd rect (at -1.78 -6.1) (size 1.52 1.52) (layers "F.Cu" "F.Paste" "F.Mask") (tstamp e50b0985-d66c-44da-9761-75555ddbbef0))
  (pad "12" smd rect (at -4.32 -6.1) (size 1.52 1.52) (layers "F.Cu" "F.Paste" "F.Mask") (tstamp e1790233-80d0-4c15-8e7c-1c48bebc77ba))
  (pad "13" smd rect (at -6.1 -4.19) (size 1.52 1.52) (layers "F.Cu" "F.Paste" "F.Mask") (tstamp 48a28df0-d662-4986-8dc6-e1bccd7e36ab))
  (pad "14" smd rect (at -6.1 -1.65) (size 1.52 1.52) (layers "F.Cu" "F.Paste" "F.Mask") (tstamp 8aceee4b-0ba2-4ec4-830f-91a73124395a))
  (pad "15" smd rect (at -6.1 0.89) (size 1.52 1.52) (layers "F.Cu" "F.Paste" "F.Mask") (tstamp 2c151088-154b-4b82-8d67-7c008f65bbe0))
  (pad "16" smd rect (at -6.1 3.43) (size 1.52 1.52) (layers "F.Cu" "F.Paste" "F.Mask") (tstamp 6be4147f-1b34-4553-9f50-74bd8c38fbf9))
)
