(module MOLEX_0039281103 (layer F.Cu) (tedit 5E1F43C9)
  (fp_text reference REF** (at 0.475 -3.335) (layer F.SilkS)
    (effects (font (size 1 1) (thickness 0.015)))
  )
  (fp_text value MOLEX_0039281103 (at 7.46 8.365) (layer F.Fab)
    (effects (font (size 1 1) (thickness 0.015)))
  )
  (fp_line (start -3.35 -2.5) (end 20.15 -2.5) (layer F.CrtYd) (width 0.05))
  (fp_line (start 20.15 -2.5) (end 20.15 7.6) (layer F.CrtYd) (width 0.05))
  (fp_line (start -3.35 7.6) (end -3.35 -2.5) (layer F.CrtYd) (width 0.05))
  (fp_line (start -3.1 -2.25) (end -3.1 7.35) (layer F.Fab) (width 0.127))
  (fp_line (start -3.1 7.35) (end 19.9 7.35) (layer F.Fab) (width 0.127))
  (fp_line (start 6.7 7.35) (end 10.1 7.35) (layer F.Fab) (width 0.127))
  (fp_line (start 19.9 7.35) (end 19.9 -2.25) (layer F.Fab) (width 0.127))
  (fp_line (start 19.9 -2.25) (end -3.1 -2.25) (layer F.Fab) (width 0.127))
  (fp_circle (center -3.81 0) (end -3.61 0) (layer F.Fab) (width 0.4))
  (fp_line (start -3.1 -2.25) (end -3.1 7.35) (layer F.SilkS) (width 0.127))
  (fp_line (start -3.1 7.35) (end 19.9 7.35) (layer F.SilkS) (width 0.127))
  (fp_line (start 6.7 7.35) (end 10.1 7.35) (layer F.SilkS) (width 0.127))
  (fp_line (start 19.9 7.35) (end 19.9 -2.25) (layer F.SilkS) (width 0.127))
  (fp_line (start 19.9 -2.25) (end -3.1 -2.25) (layer F.SilkS) (width 0.127))
  (fp_circle (center -3.81 0) (end -3.61 0) (layer F.SilkS) (width 0.4))
  (fp_line (start 6.7 8.75) (end 10.1 8.75) (layer F.SilkS) (width 0.127))
  (fp_line (start 10.1 8.75) (end 10.1 7.35) (layer F.SilkS) (width 0.127))
  (fp_line (start 6.7 8.75) (end 6.7 7.35) (layer F.SilkS) (width 0.127))
  (fp_line (start 10.1 8.75) (end 10.1 7.35) (layer F.Fab) (width 0.127))
  (fp_line (start 6.7 8.75) (end 6.7 7.35) (layer F.Fab) (width 0.127))
  (fp_line (start 6.7 8.75) (end 10.1 8.75) (layer F.Fab) (width 0.127))
  (fp_line (start -3.35 7.6) (end 6.45 7.6) (layer F.CrtYd) (width 0.05))
  (fp_line (start 6.45 7.6) (end 6.45 9) (layer F.CrtYd) (width 0.05))
  (fp_line (start 6.45 9) (end 10.35 9) (layer F.CrtYd) (width 0.05))
  (fp_line (start 10.35 9) (end 10.35 7.6) (layer F.CrtYd) (width 0.05))
  (fp_line (start 10.35 7.6) (end 20.15 7.6) (layer F.CrtYd) (width 0.05))
  (pad 1 thru_hole rect (at 0 0) (size 2.1 2.1) (drill 1.4) (layers *.Cu *.Mask)
    (zone_connect 1) (thermal_width 0.508) (thermal_gap 0.254))
  (pad 2 thru_hole circle (at 4.2 0) (size 2.1 2.1) (drill 1.4) (layers *.Cu *.Mask)
    (zone_connect 1) (thermal_width 0.508) (thermal_gap 0.254))
  (pad 3 thru_hole circle (at 8.4 0) (size 2.1 2.1) (drill 1.4) (layers *.Cu *.Mask)
    (zone_connect 1) (thermal_width 0.508) (thermal_gap 0.254))
  (pad 4 thru_hole circle (at 12.6 0) (size 2.1 2.1) (drill 1.4) (layers *.Cu *.Mask)
    (zone_connect 1) (thermal_width 0.508) (thermal_gap 0.254))
  (pad 5 thru_hole circle (at 16.8 0) (size 2.1 2.1) (drill 1.4) (layers *.Cu *.Mask)
    (zone_connect 1) (thermal_width 0.508) (thermal_gap 0.254))
  (pad 6 thru_hole circle (at 0 5.5) (size 2.1 2.1) (drill 1.4) (layers *.Cu *.Mask)
    (zone_connect 1) (thermal_width 0.508) (thermal_gap 0.254))
  (pad 7 thru_hole circle (at 4.2 5.5) (size 2.1 2.1) (drill 1.4) (layers *.Cu *.Mask)
    (zone_connect 1) (thermal_width 0.508) (thermal_gap 0.254))
  (pad 8 thru_hole circle (at 8.4 5.5) (size 2.1 2.1) (drill 1.4) (layers *.Cu *.Mask)
    (zone_connect 1) (thermal_width 0.508) (thermal_gap 0.254))
  (pad 9 thru_hole circle (at 12.6 5.5) (size 2.1 2.1) (drill 1.4) (layers *.Cu *.Mask)
    (zone_connect 1) (thermal_width 0.508) (thermal_gap 0.254))
  (pad 10 thru_hole circle (at 16.8 5.5) (size 2.1 2.1) (drill 1.4) (layers *.Cu *.Mask)
    (zone_connect 1) (thermal_width 0.508) (thermal_gap 0.254))
)
