(footprint "MountingHole_320_256mil" (version 20221018) (generator pcbnew)
  (layer "F.Cu")
  (descr "Mounting Hole 3mm, no annular")
  (tags "mounting hole 3mm no annular")
  (attr exclude_from_pos_files exclude_from_bom)
  (fp_text reference "REF**" (at 0 -4) (layer "F.SilkS")
      (effects (font (size 1 1) (thickness 0.15)))
    (tstamp cc13d8f8-cdd8-413f-9d1c-1ba20ac58a27)
  )
  (fp_text value "MountingHole_320_256mil" (at 0 4) (layer "F.Fab")
      (effects (font (size 1 1) (thickness 0.15)))
    (tstamp 2ab88904-38da-4b6e-bbf9-97e3763bf498)
  )
  (fp_text user "${REFERENCE}" (at 0 0) (layer "F.Fab")
      (effects (font (size 1 1) (thickness 0.15)))
    (tstamp a232982a-df28-4240-94c2-17968f4c8894)
  )
  (fp_circle (center 0 0) (end 4.1783 0)
    (stroke (width 0.15) (type solid)) (fill none) (layer "Cmts.User") (tstamp ca78e576-4853-43e9-94f9-d0eb377e5ecf))
  (fp_circle (center 0 0) (end 4.191 0)
    (stroke (width 0.05) (type solid)) (fill none) (layer "F.CrtYd") (tstamp b0947842-555a-4ef5-beb9-1b7aab9603aa))
  (pad "" np_thru_hole circle (at 0 0) (size 8.3566 8.3566) (drill 6.5024) (layers "F&B.Cu" "*.Mask") (tstamp bd6ffb75-90c1-4641-9825-927bb6c94de1))
)
