(module PinHeader_2x03_P4.2mm (layer F.Cu) (tedit 5E1F4227)
  (descr "Through hole straight pin header, 2x03, 4.2mm pitch, double rows")
  (tags "Through hole pin header 2x03 4.2mm double row")
  (fp_text reference REF** (at 2.5019 -3.27406) (layer F.SilkS)
    (effects (font (size 1 1) (thickness 0.15)))
  )
  (fp_text value PinHeader_2x03_P4.2mm (at 1.46558 12.02436) (layer F.Fab)
    (effects (font (size 1 1) (thickness 0.15)))
  )
  (fp_text user %R (at 1.27 2.54 90) (layer F.Fab)
    (effects (font (size 1 1) (thickness 0.15)))
  )
  (fp_line (start 6.8 -2.6) (end -2.6 -2.6) (layer F.CrtYd) (width 0.05))
  (fp_line (start 6.8 11) (end 6.8 -2.6) (layer F.CrtYd) (width 0.05))
  (fp_line (start -2.6 11) (end 6.8 11) (layer F.CrtYd) (width 0.05))
  (fp_line (start -2.6 -2.6) (end -2.6 11) (layer F.CrtYd) (width 0.05))
  (fp_line (start -2.1 -2.1) (end 0 -2.1) (layer F.SilkS) (width 0.12))
  (fp_line (start -2.1 0) (end -2.1 -2.1) (layer F.SilkS) (width 0.12))
  (fp_line (start 2.1 -2.1) (end 6.3 -2.1) (layer F.SilkS) (width 0.12))
  (fp_line (start 2.1 2.1) (end 2.1 -2.1) (layer F.SilkS) (width 0.12))
  (fp_line (start -2.1 2.1) (end 2.1 2.1) (layer F.SilkS) (width 0.12))
  (fp_line (start 6.3 -2.1) (end 6.3 10.5) (layer F.SilkS) (width 0.12))
  (fp_line (start -2.1 2.1) (end -2.1 10.5) (layer F.SilkS) (width 0.12))
  (fp_line (start -2.1 10.5) (end 6.3 10.5) (layer F.SilkS) (width 0.12))
  (fp_line (start -2 0) (end 0 -2) (layer F.Fab) (width 0.1))
  (fp_line (start -2 10.4) (end -2 0) (layer F.Fab) (width 0.1))
  (fp_line (start 6.2 10.4) (end -2 10.4) (layer F.Fab) (width 0.1))
  (fp_line (start 6.2 -2) (end 6.2 10.4) (layer F.Fab) (width 0.1))
  (fp_line (start 0 -2) (end 6.2 -2) (layer F.Fab) (width 0.1))
  (pad 6 thru_hole circle (at 4.2 8.4) (size 2.799999 2.799999) (drill 1.8) (layers *.Cu *.Mask)
    (zone_connect 1) (thermal_width 0.508) (thermal_gap 0.254))
  (pad 5 thru_hole circle (at 0 8.4) (size 2.799999 2.799999) (drill 1.8) (layers *.Cu *.Mask)
    (zone_connect 1) (thermal_width 0.508) (thermal_gap 0.254))
  (pad 4 thru_hole circle (at 4.2 4.2) (size 2.799999 2.799999) (drill 1.8) (layers *.Cu *.Mask)
    (zone_connect 1) (thermal_width 0.508) (thermal_gap 0.254))
  (pad 3 thru_hole circle (at 0 4.2) (size 2.799999 2.799999) (drill 1.8) (layers *.Cu *.Mask)
    (zone_connect 1) (thermal_width 0.508) (thermal_gap 0.254))
  (pad 2 thru_hole circle (at 4.2 0) (size 2.799999 2.799999) (drill 1.8) (layers *.Cu *.Mask)
    (zone_connect 1) (thermal_width 0.508) (thermal_gap 0.254))
  (pad 1 thru_hole rect (at 0 0) (size 2.799999 2.799999) (drill 1.8) (layers *.Cu *.Mask)
    (zone_connect 1) (thermal_width 0.508) (thermal_gap 0.254))
  (model ${KISYS3DMOD}/Connector_PinHeader_2.54mm.3dshapes/PinHeader_2x03_P2.54mm_Vertical.wrl
    (at (xyz 0 0 0))
    (scale (xyz 1 1 1))
    (rotate (xyz 0 0 0))
  )
)
