(module Rf_SMA_Receptical_SMD_THRUHOLE_Samtec-SAM10718 (layer F.Cu) (tedit 5CE4F797)
  (descr https://www.amphenolrf.com/downloads/dl/file/id/7023/product/3103/901_144_customer_drawing.pdf)
  (tags "SMA THT Female Jack Vertical")
  (fp_text reference REF** (at 0 -4.75) (layer F.SilkS)
    (effects (font (size 1 1) (thickness 0.15)))
  )
  (fp_text value Rf_SMA_Receptical_SMD_THRUHOLE_Samtec-SAM10718 (at 0 5) (layer F.Fab)
    (effects (font (size 1 1) (thickness 0.15)))
  )
  (fp_circle (center 0 0) (end 3.175 0) (layer F.Fab) (width 0.1))
  (fp_line (start 4.17 4.17) (end -4.17 4.17) (layer F.CrtYd) (width 0.05))
  (fp_line (start 4.17 4.17) (end 4.17 -4.17) (layer F.CrtYd) (width 0.05))
  (fp_line (start -4.17 -4.17) (end -4.17 4.17) (layer F.CrtYd) (width 0.05))
  (fp_line (start -4.17 -4.17) (end 4.17 -4.17) (layer F.CrtYd) (width 0.05))
  (fp_line (start -3.175 -3.175) (end 3.175 -3.175) (layer F.Fab) (width 0.1))
  (fp_line (start -3.175 -3.175) (end -3.175 3.175) (layer F.Fab) (width 0.1))
  (fp_line (start -3.175 3.175) (end 3.175 3.175) (layer F.Fab) (width 0.1))
  (fp_line (start 3.175 -3.175) (end 3.175 3.175) (layer F.Fab) (width 0.1))
  (fp_line (start -3.355 -1.45) (end -3.355 1.45) (layer F.SilkS) (width 0.12))
  (fp_line (start 3.355 -1.45) (end 3.355 1.45) (layer F.SilkS) (width 0.12))
  (fp_line (start -1.45 3.355) (end 1.45 3.355) (layer F.SilkS) (width 0.12))
  (fp_line (start -1.45 -3.355) (end 1.45 -3.355) (layer F.SilkS) (width 0.12))
  (fp_text user %R (at 0 0) (layer F.Fab)
    (effects (font (size 1 1) (thickness 0.15)))
  )
  (pad 1 smd circle (at 0 0) (size 1.73 1.73) (layers F.Cu F.Paste F.Mask))
  (pad 2 thru_hole circle (at 2.665 2.665) (size 2.25 2.25) (drill 1.5) (layers *.Cu *.Mask))
  (pad 2 thru_hole circle (at 2.665 -2.665) (size 2.25 2.25) (drill 1.5) (layers *.Cu *.Mask))
  (pad 2 thru_hole circle (at -2.665 -2.665) (size 2.25 2.25) (drill 1.5) (layers *.Cu *.Mask))
  (pad 2 thru_hole circle (at -2.665 2.665) (size 2.25 2.25) (drill 1.5) (layers *.Cu *.Mask))
  (model ${KISYS3DMOD}/Connector_Coaxial.3dshapes/SMA_Amphenol_901-144_Vertical.wrl
    (at (xyz 0 0 0))
    (scale (xyz 1 1 1))
    (rotate (xyz 0 0 0))
  )
)
