(module Rf_SMA_Receptical_SMD_EDGE_142-0711-821 (layer F.Cu) (tedit 60D5777F)
  (tags SMA)
  (attr smd)
  (fp_text reference REF** (at 4.21132 -2.80162 90) (layer F.SilkS)
    (effects (font (size 1 1) (thickness 0.15)))
  )
  (fp_text value Rf_SMA_Receptical_SMD_EDGE_142-0711-821 (at 5 6) (layer F.Fab)
    (effects (font (size 1 1) (thickness 0.15)))
  )
  (fp_line (start 3.5052 -4.8514) (end -2.1336 -4.8514) (layer F.CrtYd) (width 0.05))
  (fp_line (start 3.5052 -4.8514) (end 3.5052 4.8514) (layer F.CrtYd) (width 0.05))
  (fp_line (start 3.5052 4.8514) (end -2.1336 4.8514) (layer F.CrtYd) (width 0.05))
  (fp_line (start -2.1336 4.8514) (end -2.1336 -4.8514) (layer F.CrtYd) (width 0.05))
  (fp_line (start 3.5052 -4.8514) (end -2.1336 -4.8514) (layer B.CrtYd) (width 0.05))
  (fp_line (start 3.5052 -4.8514) (end 3.5052 4.8514) (layer B.CrtYd) (width 0.05))
  (fp_line (start 3.5052 4.8514) (end -2.1336 4.8514) (layer B.CrtYd) (width 0.05))
  (fp_line (start -2.1336 4.8514) (end -2.1336 -4.8514) (layer B.CrtYd) (width 0.05))
  (fp_text user %R (at 4.25958 2.88798 270) (layer F.Fab)
    (effects (font (size 1 1) (thickness 0.15)))
  )
  (pad 2 smd rect (at 1.12395 3.4925) (size 4.6736 0.4572) (layers B.Cu B.Paste B.Mask))
  (pad 2 smd rect (at 1.12395 -3.4925) (size 4.6736 0.4572) (layers B.Cu B.Paste B.Mask))
  (pad 2 smd rect (at 1.12395 3.4925) (size 4.6736 0.4572) (layers F.Cu F.Paste F.Mask))
  (pad 2 smd rect (at 1.12395 -3.4925) (size 4.6736 0.4572) (layers F.Cu F.Paste F.Mask))
  (pad 2 thru_hole circle (at 2.9845 -3.4925) (size 0.9652 0.9652) (drill 0.4572) (layers *.Cu))
  (pad 2 thru_hole circle (at 2.9845 3.4925) (size 0.9652 0.9652) (drill 0.4572) (layers *.Cu))
  (pad 1 smd rect (at 0 0 90) (size 1.778 4.191) (layers F.Cu F.Paste F.Mask))
  (pad 2 smd rect (at 0 -3.4925 90) (size 2.667 4.191) (layers F.Cu F.Paste F.Mask))
  (pad 2 smd rect (at 0 3.4925 90) (size 2.667 4.191) (layers F.Cu F.Paste F.Mask))
  (pad 2 smd rect (at 0 -3.4925 90) (size 2.667 4.191) (layers B.Cu B.Paste B.Mask))
  (pad 2 smd rect (at 0 3.4925 90) (size 2.667 4.191) (layers B.Cu B.Paste B.Mask))
  (model ${KISYS3DMOD}/Connector_Coaxial.3dshapes/SMA_Amphenol_132289_EdgeMount.wrl
    (at (xyz 0 0 0))
    (scale (xyz 1 1 1))
    (rotate (xyz 0 0 0))
  )
)
