(module RF_SMA_Receptical_THRUHOLE_142-0701-301 (layer F.Cu) (tedit 5CE4FA9A)
  (fp_text reference REF** (at 0.375 -4.8) (layer F.SilkS)
    (effects (font (size 1 1) (thickness 0.15)))
  )
  (fp_text value RF_SMA_Receptical_THRUHOLE_142-0701-301 (at 0.1 4.775) (layer F.Fab)
    (effects (font (size 1 1) (thickness 0.15)))
  )
  (fp_line (start -1.3 3.325) (end 1.25 3.325) (layer F.SilkS) (width 0.1))
  (fp_line (start -3.325 1.225) (end -3.325 -1.225) (layer F.SilkS) (width 0.1))
  (fp_line (start 3.4 -1.15) (end 3.4 1.025) (layer F.SilkS) (width 0.1))
  (fp_line (start -1.15 -3.35) (end 1.175 -3.35) (layer F.SilkS) (width 0.1))
  (fp_line (start -4.1 4.1) (end -4.1 -4.1) (layer F.CrtYd) (width 0.05))
  (fp_line (start 4.1 4.1) (end -4.1 4.1) (layer F.CrtYd) (width 0.05))
  (fp_line (start 4.1 -4.1) (end 4.1 4.1) (layer F.CrtYd) (width 0.05))
  (fp_line (start -4.1 -4.1) (end 4.1 -4.1) (layer F.CrtYd) (width 0.05))
  (fp_line (start -3.2 3.2) (end -3.2 -3.2) (layer F.Fab) (width 0.1))
  (fp_line (start 3.2 3.2) (end -3.2 3.2) (layer F.Fab) (width 0.1))
  (fp_line (start 3.2 -3.2) (end 3.2 3.2) (layer F.Fab) (width 0.1))
  (fp_line (start -3.2 -3.2) (end 3.2 -3.2) (layer F.Fab) (width 0.1))
  (pad 1 thru_hole circle (at 0.127 -0.127) (size 2.5908 2.5908) (drill 1.5748) (layers *.Cu *.Mask))
  (pad 2 thru_hole circle (at -2.54 -2.54) (size 2.5908 2.5908) (drill 1.7018) (layers *.Cu *.Mask))
  (pad 2 thru_hole circle (at 2.54 -2.54) (size 2.5908 2.5908) (drill 1.7018) (layers *.Cu *.Mask))
  (pad 2 thru_hole circle (at 2.54 2.54) (size 2.5908 2.5908) (drill 1.7018) (layers *.Cu *.Mask))
  (pad 2 thru_hole circle (at -2.54 2.54) (size 2.5908 2.5908) (drill 1.7018) (layers *.Cu *.Mask))
)
