(module RF_Shielding_Harwin_S0981-46R (layer F.Cu) (tedit 6108EA93)
  (attr smd)
  (fp_text reference REF** (at -2.34696 -1.79578) (layer F.SilkS)
    (effects (font (size 1 1) (thickness 0.15)))
  )
  (fp_text value RF_Shielding_Harwin_S0981-46R (at -0.23622 1.42494) (layer F.Fab)
    (effects (font (size 1 1) (thickness 0.15)))
  )
  (pad 1 smd rect (at 0 -4) (size 1 0.8) (layers F.Cu F.Paste F.Mask))
  (pad 1 smd rect (at -4 0) (size 0.8 1) (layers F.Cu F.Paste F.Mask))
  (pad 1 smd rect (at 0 0) (size 1 1) (layers F.Cu F.Paste F.Mask))
  (pad 1 smd rect (at 0 -1.05) (size 1 1.1) (layers F.Cu F.Paste F.Mask))
  (pad 1 smd rect (at -1.05 0) (size 1.1 1) (layers F.Cu F.Paste F.Mask))
)
